Analysis & Synthesis report for Sound
Thu Oct 12 10:03:08 2017
Quartus II 64-Bit Version 12.1 Build 243 01/31/2013 Service Pack 1.33 SJ Full Version


---------------------
; Table of Contents ;
---------------------
  1. Legal Notice
  2. Analysis & Synthesis Summary
  3. Analysis & Synthesis Settings
  4. Parallel Compilation
  5. Analysis & Synthesis Source Files Read
  6. Analysis & Synthesis Resource Usage Summary
  7. Analysis & Synthesis Resource Utilization by Entity
  8. Analysis & Synthesis RAM Summary
  9. Analysis & Synthesis DSP Block Usage Summary
 10. Registers Removed During Synthesis
 11. General Register Statistics
 12. Inverted Register Statistics
 13. Registers Packed Into Inferred Megafunctions
 14. Multiplexer Restructuring Statistics (Restructuring Performed)
 15. Source assignments for Application:instApp|PSAC:psac_inst|POLY_ROM:rom|altsyncram:Mux24_rtl_0|altsyncram_37v:auto_generated
 16. Parameter Settings for User Entity Instance: group_no:inst
 17. Parameter Settings for Inferred Entity Instance: Application:instApp|PSAC:psac_inst|POLY_ROM:rom|altsyncram:Mux24_rtl_0
 18. Parameter Settings for Inferred Entity Instance: Application:instApp|lpm_mult:Mult1
 19. Parameter Settings for Inferred Entity Instance: Application:instApp|lpm_mult:Mult0
 20. Parameter Settings for Inferred Entity Instance: Application:instApp|PSAC:psac_inst|lpm_mult:Mult0
 21. altsyncram Parameter Settings by Entity Instance
 22. lpm_mult Parameter Settings by Entity Instance
 23. Port Connectivity Checks: "Application:instApp|PSAC:psac_inst"
 24. Elapsed Time Per Partition
 25. Analysis & Synthesis Messages



----------------
; Legal Notice ;
----------------
Copyright (C) 1991-2012 Altera Corporation
Your use of Altera Corporation's design tools, logic functions 
and other software and tools, and its AMPP partner logic 
functions, and any output files from any of the foregoing 
(including device programming or simulation files), and any 
associated documentation or information are expressly subject 
to the terms and conditions of the Altera Program License 
Subscription Agreement, Altera MegaCore Function License 
Agreement, or other applicable license agreement, including, 
without limitation, that your use is for the sole purpose of 
programming logic devices manufactured by Altera and sold by 
Altera or its authorized distributors.  Please refer to the 
applicable agreement for further details.



+----------------------------------------------------------------------------------------+
; Analysis & Synthesis Summary                                                           ;
+------------------------------------+---------------------------------------------------+
; Analysis & Synthesis Status        ; Successful - Thu Oct 12 10:03:08 2017             ;
; Quartus II 64-Bit Version          ; 12.1 Build 243 01/31/2013 SP 1.33 SJ Full Version ;
; Revision Name                      ; Sound                                             ;
; Top-level Entity Name              ; Sound                                             ;
; Family                             ; Cyclone IV E                                      ;
; Total logic elements               ; 651                                               ;
;     Total combinational functions  ; 579                                               ;
;     Dedicated logic registers      ; 387                                               ;
; Total registers                    ; 387                                               ;
; Total pins                         ; 83                                                ;
; Total virtual pins                 ; 0                                                 ;
; Total memory bits                  ; 1,600                                             ;
; Embedded Multiplier 9-bit elements ; 6                                                 ;
; Total PLLs                         ; 0                                                 ;
+------------------------------------+---------------------------------------------------+


+----------------------------------------------------------------------------------------------------------------------+
; Analysis & Synthesis Settings                                                                                        ;
+----------------------------------------------------------------------------+--------------------+--------------------+
; Option                                                                     ; Setting            ; Default Value      ;
+----------------------------------------------------------------------------+--------------------+--------------------+
; Device                                                                     ; EP4CE115F29C7      ;                    ;
; Top-level entity name                                                      ; Sound              ; Sound              ;
; Family name                                                                ; Cyclone IV E       ; Cyclone IV GX      ;
; Optimization Technique                                                     ; Area               ; Balanced           ;
; Use smart compilation                                                      ; Off                ; Off                ;
; Enable parallel Assembler and TimeQuest Timing Analyzer during compilation ; On                 ; On                 ;
; Enable compact report table                                                ; Off                ; Off                ;
; Restructure Multiplexers                                                   ; Auto               ; Auto               ;
; Create Debugging Nodes for IP Cores                                        ; Off                ; Off                ;
; Preserve fewer node names                                                  ; On                 ; On                 ;
; Disable OpenCore Plus hardware evaluation                                  ; Off                ; Off                ;
; Verilog Version                                                            ; Verilog_2001       ; Verilog_2001       ;
; VHDL Version                                                               ; VHDL_1993          ; VHDL_1993          ;
; State Machine Processing                                                   ; Auto               ; Auto               ;
; Safe State Machine                                                         ; Off                ; Off                ;
; Extract Verilog State Machines                                             ; On                 ; On                 ;
; Extract VHDL State Machines                                                ; On                 ; On                 ;
; Ignore Verilog initial constructs                                          ; Off                ; Off                ;
; Iteration limit for constant Verilog loops                                 ; 5000               ; 5000               ;
; Iteration limit for non-constant Verilog loops                             ; 250                ; 250                ;
; Add Pass-Through Logic to Inferred RAMs                                    ; On                 ; On                 ;
; Infer RAMs from Raw Logic                                                  ; On                 ; On                 ;
; Parallel Synthesis                                                         ; On                 ; On                 ;
; DSP Block Balancing                                                        ; Auto               ; Auto               ;
; NOT Gate Push-Back                                                         ; On                 ; On                 ;
; Power-Up Don't Care                                                        ; On                 ; On                 ;
; Remove Redundant Logic Cells                                               ; Off                ; Off                ;
; Remove Duplicate Registers                                                 ; On                 ; On                 ;
; Ignore CARRY Buffers                                                       ; Off                ; Off                ;
; Ignore CASCADE Buffers                                                     ; Off                ; Off                ;
; Ignore GLOBAL Buffers                                                      ; Off                ; Off                ;
; Ignore ROW GLOBAL Buffers                                                  ; Off                ; Off                ;
; Ignore LCELL Buffers                                                       ; Off                ; Off                ;
; Ignore SOFT Buffers                                                        ; On                 ; On                 ;
; Limit AHDL Integers to 32 Bits                                             ; Off                ; Off                ;
; Carry Chain Length                                                         ; 70                 ; 70                 ;
; Auto Carry Chains                                                          ; On                 ; On                 ;
; Auto Open-Drain Pins                                                       ; On                 ; On                 ;
; Perform WYSIWYG Primitive Resynthesis                                      ; Off                ; Off                ;
; Auto ROM Replacement                                                       ; On                 ; On                 ;
; Auto RAM Replacement                                                       ; On                 ; On                 ;
; Auto DSP Block Replacement                                                 ; On                 ; On                 ;
; Auto Shift Register Replacement                                            ; Auto               ; Auto               ;
; Allow Shift Register Merging across Hierarchies                            ; Auto               ; Auto               ;
; Auto Clock Enable Replacement                                              ; On                 ; On                 ;
; Strict RAM Replacement                                                     ; Off                ; Off                ;
; Allow Synchronous Control Signals                                          ; On                 ; On                 ;
; Force Use of Synchronous Clear Signals                                     ; Off                ; Off                ;
; Auto RAM Block Balancing                                                   ; On                 ; On                 ;
; Auto RAM to Logic Cell Conversion                                          ; Off                ; Off                ;
; Auto Resource Sharing                                                      ; Off                ; Off                ;
; Allow Any RAM Size For Recognition                                         ; Off                ; Off                ;
; Allow Any ROM Size For Recognition                                         ; Off                ; Off                ;
; Allow Any Shift Register Size For Recognition                              ; Off                ; Off                ;
; Use LogicLock Constraints during Resource Balancing                        ; On                 ; On                 ;
; Ignore translate_off and synthesis_off directives                          ; Off                ; Off                ;
; Timing-Driven Synthesis                                                    ; On                 ; On                 ;
; Report Parameter Settings                                                  ; On                 ; On                 ;
; Report Source Assignments                                                  ; On                 ; On                 ;
; Report Connectivity Checks                                                 ; On                 ; On                 ;
; Ignore Maximum Fan-Out Assignments                                         ; Off                ; Off                ;
; Synchronization Register Chain Length                                      ; 2                  ; 2                  ;
; PowerPlay Power Optimization                                               ; Normal compilation ; Normal compilation ;
; HDL message level                                                          ; Level2             ; Level2             ;
; Suppress Register Optimization Related Messages                            ; Off                ; Off                ;
; Number of Removed Registers Reported in Synthesis Report                   ; 5000               ; 5000               ;
; Number of Swept Nodes Reported in Synthesis Report                         ; 5000               ; 5000               ;
; Number of Inverted Registers Reported in Synthesis Report                  ; 100                ; 100                ;
; Clock MUX Protection                                                       ; On                 ; On                 ;
; Auto Gated Clock Conversion                                                ; Off                ; Off                ;
; Block Design Naming                                                        ; Auto               ; Auto               ;
; SDC constraint protection                                                  ; Off                ; Off                ;
; Synthesis Effort                                                           ; Auto               ; Auto               ;
; Shift Register Replacement - Allow Asynchronous Clear Signal               ; On                 ; On                 ;
; Pre-Mapping Resynthesis Optimization                                       ; Off                ; Off                ;
; Analysis & Synthesis Message Level                                         ; Medium             ; Medium             ;
; Disable Register Merging Across Hierarchies                                ; Auto               ; Auto               ;
; Resource Aware Inference For Block RAM                                     ; On                 ; On                 ;
; Synthesis Seed                                                             ; 1                  ; 1                  ;
+----------------------------------------------------------------------------+--------------------+--------------------+


+------------------------------------------+
; Parallel Compilation                     ;
+----------------------------+-------------+
; Processors                 ; Number      ;
+----------------------------+-------------+
; Number detected on machine ; 4           ;
; Maximum allowed            ; 4           ;
;                            ;             ;
; Average used               ; 1.00        ;
; Maximum used               ; 1           ;
;                            ;             ;
; Usage by Processor         ; % Time Used ;
;     1 processor            ; 100.0%      ;
;     2-4 processors         ;   0.0%      ;
+----------------------------+-------------+


+-----------------------------------------------------------------------------------------------------------------------------------------------------------------------------+
; Analysis & Synthesis Source Files Read                                                                                                                                      ;
+----------------------------------+-----------------+------------------------------------+-------------------------------------------------------------------------+---------+
; File Name with User-Entered Path ; Used in Netlist ; File Type                          ; File Name with Absolute Path                                            ; Library ;
+----------------------------------+-----------------+------------------------------------+-------------------------------------------------------------------------+---------+
; group_no.vhd                     ; yes             ; User VHDL File                     ; H:/TSIU03/lab4 - Copy - Copy/group_no.vhd                               ;         ;
; Sound.bdf                        ; yes             ; User Block Diagram/Schematic File  ; H:/TSIU03/lab4 - Copy - Copy/Sound.bdf                                  ;         ;
; Application.vhd                  ; yes             ; User VHDL File                     ; H:/TSIU03/lab4 - Copy - Copy/Application.vhd                            ;         ;
; SndDriver.bdf                    ; yes             ; User Block Diagram/Schematic File  ; H:/TSIU03/lab4 - Copy - Copy/SndDriver.bdf                              ;         ;
; ctrl_block.vhd                   ; yes             ; User VHDL File                     ; H:/TSIU03/lab4 - Copy - Copy/ctrl_block.vhd                             ;         ;
; Channel_mod.vhd                  ; yes             ; User VHDL File                     ; H:/TSIU03/lab4 - Copy - Copy/Channel_mod.vhd                            ;         ;
; adcdatcode.vhd                   ; yes             ; User VHDL File                     ; H:/TSIU03/lab4 - Copy - Copy/adcdatcode.vhd                             ;         ;
; Ram_control.vhd                  ; yes             ; User VHDL File                     ; H:/TSIU03/lab4 - Copy - Copy/Ram_control.vhd                            ;         ;
; altsyncram.tdf                   ; yes             ; Megafunction                       ; c:/altera/12.1sp1/quartus/libraries/megafunctions/altsyncram.tdf        ;         ;
; stratix_ram_block.inc            ; yes             ; Megafunction                       ; c:/altera/12.1sp1/quartus/libraries/megafunctions/stratix_ram_block.inc ;         ;
; lpm_mux.inc                      ; yes             ; Megafunction                       ; c:/altera/12.1sp1/quartus/libraries/megafunctions/lpm_mux.inc           ;         ;
; lpm_decode.inc                   ; yes             ; Megafunction                       ; c:/altera/12.1sp1/quartus/libraries/megafunctions/lpm_decode.inc        ;         ;
; aglobal121.inc                   ; yes             ; Megafunction                       ; c:/altera/12.1sp1/quartus/libraries/megafunctions/aglobal121.inc        ;         ;
; a_rdenreg.inc                    ; yes             ; Megafunction                       ; c:/altera/12.1sp1/quartus/libraries/megafunctions/a_rdenreg.inc         ;         ;
; altrom.inc                       ; yes             ; Megafunction                       ; c:/altera/12.1sp1/quartus/libraries/megafunctions/altrom.inc            ;         ;
; altram.inc                       ; yes             ; Megafunction                       ; c:/altera/12.1sp1/quartus/libraries/megafunctions/altram.inc            ;         ;
; altdpram.inc                     ; yes             ; Megafunction                       ; c:/altera/12.1sp1/quartus/libraries/megafunctions/altdpram.inc          ;         ;
; db/altsyncram_37v.tdf            ; yes             ; Auto-Generated Megafunction        ; H:/TSIU03/lab4 - Copy - Copy/db/altsyncram_37v.tdf                      ;         ;
; lpm_mult.tdf                     ; yes             ; Megafunction                       ; c:/altera/12.1sp1/quartus/libraries/megafunctions/lpm_mult.tdf          ;         ;
; lpm_add_sub.inc                  ; yes             ; Megafunction                       ; c:/altera/12.1sp1/quartus/libraries/megafunctions/lpm_add_sub.inc       ;         ;
; multcore.inc                     ; yes             ; Megafunction                       ; c:/altera/12.1sp1/quartus/libraries/megafunctions/multcore.inc          ;         ;
; bypassff.inc                     ; yes             ; Megafunction                       ; c:/altera/12.1sp1/quartus/libraries/megafunctions/bypassff.inc          ;         ;
; altshift.inc                     ; yes             ; Megafunction                       ; c:/altera/12.1sp1/quartus/libraries/megafunctions/altshift.inc          ;         ;
; db/mult_36t.tdf                  ; yes             ; Auto-Generated Megafunction        ; H:/TSIU03/lab4 - Copy - Copy/db/mult_36t.tdf                            ;         ;
; db/mult_lbt.tdf                  ; yes             ; Auto-Generated Megafunction        ; H:/TSIU03/lab4 - Copy - Copy/db/mult_lbt.tdf                            ;         ;
+----------------------------------+-----------------+------------------------------------+-------------------------------------------------------------------------+---------+


+-----------------------------------------------------+
; Analysis & Synthesis Resource Usage Summary         ;
+---------------------------------------------+-------+
; Resource                                    ; Usage ;
+---------------------------------------------+-------+
; Estimated Total logic elements              ; 651   ;
;                                             ;       ;
; Total combinational functions               ; 579   ;
; Logic element usage by number of LUT inputs ;       ;
;     -- 4 input functions                    ; 66    ;
;     -- 3 input functions                    ; 273   ;
;     -- <=2 input functions                  ; 240   ;
;                                             ;       ;
; Logic elements by mode                      ;       ;
;     -- normal mode                          ; 251   ;
;     -- arithmetic mode                      ; 328   ;
;                                             ;       ;
; Total registers                             ; 387   ;
;     -- Dedicated logic registers            ; 387   ;
;     -- I/O registers                        ; 0     ;
;                                             ;       ;
; I/O pins                                    ; 83    ;
; Total memory bits                           ; 1600  ;
; Embedded Multiplier 9-bit elements          ; 6     ;
; Maximum fan-out                             ; 412   ;
; Total fan-out                               ; 3143  ;
; Average fan-out                             ; 2.70  ;
+---------------------------------------------+-------+


+-----------------------------------------------------------------------------------------------------------------------------------------------------------------------------------------------------------------------------------------------------------------------------------------+
; Analysis & Synthesis Resource Utilization by Entity                                                                                                                                                                                                                                     ;
+------------------------------------------------+-------------------+--------------+-------------+--------------+---------+-----------+------+--------------+-------------------------------------------------------------------------------------------------------------+--------------+
; Compilation Hierarchy Node                     ; LC Combinationals ; LC Registers ; Memory Bits ; DSP Elements ; DSP 9x9 ; DSP 18x18 ; Pins ; Virtual Pins ; Full Hierarchy Name                                                                                         ; Library Name ;
+------------------------------------------------+-------------------+--------------+-------------+--------------+---------+-----------+------+--------------+-------------------------------------------------------------------------------------------------------------+--------------+
; |Sound                                         ; 579 (0)           ; 387 (0)      ; 1600        ; 6            ; 0       ; 3         ; 83   ; 0            ; |Sound                                                                                                      ;              ;
;    |Application:instApp|                       ; 466 (410)         ; 272 (247)    ; 1600        ; 6            ; 0       ; 3         ; 0    ; 0            ; |Sound|Application:instApp                                                                                  ;              ;
;       |PSAC:psac_inst|                         ; 56 (56)           ; 25 (25)      ; 1600        ; 2            ; 0       ; 1         ; 0    ; 0            ; |Sound|Application:instApp|PSAC:psac_inst                                                                   ;              ;
;          |POLY_ROM:rom|                        ; 0 (0)             ; 0 (0)        ; 1600        ; 0            ; 0       ; 0         ; 0    ; 0            ; |Sound|Application:instApp|PSAC:psac_inst|POLY_ROM:rom                                                      ;              ;
;             |altsyncram:Mux24_rtl_0|           ; 0 (0)             ; 0 (0)        ; 1600        ; 0            ; 0       ; 0         ; 0    ; 0            ; |Sound|Application:instApp|PSAC:psac_inst|POLY_ROM:rom|altsyncram:Mux24_rtl_0                               ;              ;
;                |altsyncram_37v:auto_generated| ; 0 (0)             ; 0 (0)        ; 1600        ; 0            ; 0       ; 0         ; 0    ; 0            ; |Sound|Application:instApp|PSAC:psac_inst|POLY_ROM:rom|altsyncram:Mux24_rtl_0|altsyncram_37v:auto_generated ;              ;
;          |lpm_mult:Mult0|                      ; 0 (0)             ; 0 (0)        ; 0           ; 2            ; 0       ; 1         ; 0    ; 0            ; |Sound|Application:instApp|PSAC:psac_inst|lpm_mult:Mult0                                                    ;              ;
;             |mult_lbt:auto_generated|          ; 0 (0)             ; 0 (0)        ; 0           ; 2            ; 0       ; 1         ; 0    ; 0            ; |Sound|Application:instApp|PSAC:psac_inst|lpm_mult:Mult0|mult_lbt:auto_generated                            ;              ;
;       |lpm_mult:Mult0|                         ; 0 (0)             ; 0 (0)        ; 0           ; 2            ; 0       ; 1         ; 0    ; 0            ; |Sound|Application:instApp|lpm_mult:Mult0                                                                   ;              ;
;          |mult_36t:auto_generated|             ; 0 (0)             ; 0 (0)        ; 0           ; 2            ; 0       ; 1         ; 0    ; 0            ; |Sound|Application:instApp|lpm_mult:Mult0|mult_36t:auto_generated                                           ;              ;
;       |lpm_mult:Mult1|                         ; 0 (0)             ; 0 (0)        ; 0           ; 2            ; 0       ; 1         ; 0    ; 0            ; |Sound|Application:instApp|lpm_mult:Mult1                                                                   ;              ;
;          |mult_36t:auto_generated|             ; 0 (0)             ; 0 (0)        ; 0           ; 2            ; 0       ; 1         ; 0    ; 0            ; |Sound|Application:instApp|lpm_mult:Mult1|mult_36t:auto_generated                                           ;              ;
;    |RAM_control:inst2|                         ; 42 (42)           ; 31 (31)      ; 0           ; 0            ; 0       ; 0         ; 0    ; 0            ; |Sound|RAM_control:inst2                                                                                    ;              ;
;    |SndDriver:instSndDrv|                      ; 48 (1)            ; 74 (0)       ; 0           ; 0            ; 0       ; 0         ; 0    ; 0            ; |Sound|SndDriver:instSndDrv                                                                                 ;              ;
;       |Channel_mod:inst_left|                  ; 19 (19)           ; 32 (32)      ; 0           ; 0            ; 0       ; 0         ; 0    ; 0            ; |Sound|SndDriver:instSndDrv|Channel_mod:inst_left                                                           ;              ;
;       |Channel_mod:inst_right|                 ; 18 (18)           ; 32 (32)      ; 0           ; 0            ; 0       ; 0         ; 0    ; 0            ; |Sound|SndDriver:instSndDrv|Channel_mod:inst_right                                                          ;              ;
;       |Ctrl:inst_ctrl|                         ; 10 (10)           ; 10 (10)      ; 0           ; 0            ; 0       ; 0         ; 0    ; 0            ; |Sound|SndDriver:instSndDrv|Ctrl:inst_ctrl                                                                  ;              ;
;    |adcdatcode:inst1|                          ; 23 (23)           ; 10 (10)      ; 0           ; 0            ; 0       ; 0         ; 0    ; 0            ; |Sound|adcdatcode:inst1                                                                                     ;              ;
+------------------------------------------------+-------------------+--------------+-------------+--------------+---------+-----------+------+--------------+-------------------------------------------------------------------------------------------------------------+--------------+
Note: For table entries with two numbers listed, the numbers in parentheses indicate the number of resources of the given type used by the specific entity alone. The numbers listed outside of parentheses indicate the total resources of the given type used by the specific entity and all of its sub-entities in the hierarchy.


+-------------------------------------------------------------------------------------------------------------------------------------------------------------------------------------------------------------------------+
; Analysis & Synthesis RAM Summary                                                                                                                                                                                        ;
+-----------------------------------------------------------------------------------------------------------------+------+------+--------------+--------------+--------------+--------------+------+----------------------+
; Name                                                                                                            ; Type ; Mode ; Port A Depth ; Port A Width ; Port B Depth ; Port B Width ; Size ; MIF                  ;
+-----------------------------------------------------------------------------------------------------------------+------+------+--------------+--------------+--------------+--------------+------+----------------------+
; Application:instApp|PSAC:psac_inst|POLY_ROM:rom|altsyncram:Mux24_rtl_0|altsyncram_37v:auto_generated|ALTSYNCRAM ; AUTO ; ROM  ; 64           ; 25           ; --           ; --           ; 1600 ; Sound.Sound0.rtl.mif ;
+-----------------------------------------------------------------------------------------------------------------+------+------+--------------+--------------+--------------+--------------+------+----------------------+


+-----------------------------------------------------+
; Analysis & Synthesis DSP Block Usage Summary        ;
+---------------------------------------+-------------+
; Statistic                             ; Number Used ;
+---------------------------------------+-------------+
; Simple Multipliers (9-bit)            ; 0           ;
; Simple Multipliers (18-bit)           ; 3           ;
; Embedded Multiplier Blocks            ; --          ;
; Embedded Multiplier 9-bit elements    ; 6           ;
; Signed Embedded Multipliers           ; 2           ;
; Unsigned Embedded Multipliers         ; 1           ;
; Mixed Sign Embedded Multipliers       ; 0           ;
; Variable Sign Embedded Multipliers    ; 0           ;
; Dedicated Input Shift Register Chains ; 0           ;
+---------------------------------------+-------------+
Note: number of Embedded Multiplier Blocks used is only available after a successful fit.


+-------------------------------------------------------------------------------------------------+
; Registers Removed During Synthesis                                                              ;
+---------------------------------------+---------------------------------------------------------+
; Register name                         ; Reason for Removal                                      ;
+---------------------------------------+---------------------------------------------------------+
; Application:instApp|x[0]              ; Stuck at GND due to stuck port data_in                  ;
; Application:instApp|xm[3]             ; Merged with Application:instApp|xr[2]                   ;
; Application:instApp|xl[1]             ; Merged with Application:instApp|xr[2]                   ;
; Application:instApp|xm[4]             ; Merged with Application:instApp|xl[2]                   ;
; adcdatcode:inst1|cntr2[0]             ; Merged with SndDriver:instSndDrv|Ctrl:inst_ctrl|cntr[0] ;
; Total Number of Removed Registers = 5 ;                                                         ;
+---------------------------------------+---------------------------------------------------------+


+------------------------------------------------------+
; General Register Statistics                          ;
+----------------------------------------------+-------+
; Statistic                                    ; Value ;
+----------------------------------------------+-------+
; Total registers                              ; 387   ;
; Number of registers using Synchronous Clear  ; 41    ;
; Number of registers using Synchronous Load   ; 15    ;
; Number of registers using Asynchronous Clear ; 115   ;
; Number of registers using Asynchronous Load  ; 0     ;
; Number of registers using Clock Enable       ; 284   ;
; Number of registers using Preset             ; 0     ;
+----------------------------------------------+-------+


+---------------------------------------------------+
; Inverted Register Statistics                      ;
+-----------------------------------------+---------+
; Inverted Register                       ; Fan out ;
+-----------------------------------------+---------+
; Application:instApp|noise[15]           ; 11      ;
; adcdatcode:inst1|samplebit[3]           ; 8       ;
; adcdatcode:inst1|samplebit[2]           ; 7       ;
; adcdatcode:inst1|samplebit[1]           ; 5       ;
; adcdatcode:inst1|samplebit[0]           ; 5       ;
; Application:instApp|noise[0]            ; 1       ;
; Application:instApp|noise[7]            ; 4       ;
; Application:instApp|noise[1]            ; 1       ;
; Application:instApp|noise[8]            ; 3       ;
; Application:instApp|noise[2]            ; 1       ;
; Application:instApp|noise[9]            ; 3       ;
; Application:instApp|noise[3]            ; 1       ;
; Application:instApp|noise[10]           ; 3       ;
; Application:instApp|noise[14]           ; 3       ;
; Application:instApp|noise[4]            ; 3       ;
; Application:instApp|noise[11]           ; 3       ;
; Application:instApp|noise[13]           ; 3       ;
; Application:instApp|noise[5]            ; 3       ;
; Application:instApp|noise[12]           ; 3       ;
; Application:instApp|noise[6]            ; 3       ;
; Total number of inverted registers = 20 ;         ;
+-----------------------------------------+---------+


+-----------------------------------------------------------------------------------------------------------------------------------+
; Registers Packed Into Inferred Megafunctions                                                                                      ;
+--------------------------------------------------------------+-------------------------------------------------------------+------+
; Register Name                                                ; Megafunction                                                ; Type ;
+--------------------------------------------------------------+-------------------------------------------------------------+------+
; Application:instApp|PSAC:psac_inst|POLY_ROM:rom|data2[0..14] ; Application:instApp|PSAC:psac_inst|POLY_ROM:rom|Mux24_rtl_0 ; ROM  ;
; Application:instApp|PSAC:psac_inst|POLY_ROM:rom|data1[0..9]  ; Application:instApp|PSAC:psac_inst|POLY_ROM:rom|Mux24_rtl_0 ; ROM  ;
+--------------------------------------------------------------+-------------------------------------------------------------+------+


+---------------------------------------------------------------------------------------------------------------------------------------------------------------------------+
; Multiplexer Restructuring Statistics (Restructuring Performed)                                                                                                            ;
+--------------------+-----------+---------------+----------------------+------------------------+------------+-------------------------------------------------------------+
; Multiplexer Inputs ; Bus Width ; Baseline Area ; Area if Restructured ; Saving if Restructured ; Registered ; Example Multiplexer Output                                  ;
+--------------------+-----------+---------------+----------------------+------------------------+------------+-------------------------------------------------------------+
; 3:1                ; 15 bits   ; 30 LEs        ; 15 LEs               ; 15 LEs                 ; Yes        ; |Sound|SndDriver:instSndDrv|Channel_mod:inst_right|TXReg[5] ;
; 3:1                ; 15 bits   ; 30 LEs        ; 15 LEs               ; 15 LEs                 ; Yes        ; |Sound|SndDriver:instSndDrv|Channel_mod:inst_left|TXReg[12] ;
; 3:1                ; 32 bits   ; 64 LEs        ; 32 LEs               ; 32 LEs                 ; Yes        ; |Sound|Application:instApp|RDAC[15]                         ;
; 4:1                ; 13 bits   ; 26 LEs        ; 26 LEs               ; 0 LEs                  ; Yes        ; |Sound|Application:instApp|x[10]                            ;
+--------------------+-----------+---------------+----------------------+------------------------+------------+-------------------------------------------------------------+


+-----------------------------------------------------------------------------------------------------------------------------+
; Source assignments for Application:instApp|PSAC:psac_inst|POLY_ROM:rom|altsyncram:Mux24_rtl_0|altsyncram_37v:auto_generated ;
+---------------------------------+--------------------+------+---------------------------------------------------------------+
; Assignment                      ; Value              ; From ; To                                                            ;
+---------------------------------+--------------------+------+---------------------------------------------------------------+
; OPTIMIZE_POWER_DURING_SYNTHESIS ; NORMAL_COMPILATION ; -    ; -                                                             ;
+---------------------------------+--------------------+------+---------------------------------------------------------------+


+------------------------------------------------------------+
; Parameter Settings for User Entity Instance: group_no:inst ;
+----------------+-------+-----------------------------------+
; Parameter Name ; Value ; Type                              ;
+----------------+-------+-----------------------------------+
; number         ; 55    ; Signed Integer                    ;
+----------------+-------+-----------------------------------+
Note: In order to hide this table in the UI and the text report file, please set the "Show Parameter Settings in Synthesis Report" option in "Analysis and Synthesis Settings -> More Settings" to "Off".


+-------------------------------------------------------------------------------------------------------------------------+
; Parameter Settings for Inferred Entity Instance: Application:instApp|PSAC:psac_inst|POLY_ROM:rom|altsyncram:Mux24_rtl_0 ;
+------------------------------------+----------------------+-------------------------------------------------------------+
; Parameter Name                     ; Value                ; Type                                                        ;
+------------------------------------+----------------------+-------------------------------------------------------------+
; BYTE_SIZE_BLOCK                    ; 8                    ; Untyped                                                     ;
; AUTO_CARRY_CHAINS                  ; ON                   ; AUTO_CARRY                                                  ;
; IGNORE_CARRY_BUFFERS               ; OFF                  ; IGNORE_CARRY                                                ;
; AUTO_CASCADE_CHAINS                ; ON                   ; AUTO_CASCADE                                                ;
; IGNORE_CASCADE_BUFFERS             ; OFF                  ; IGNORE_CASCADE                                              ;
; WIDTH_BYTEENA                      ; 1                    ; Untyped                                                     ;
; OPERATION_MODE                     ; ROM                  ; Untyped                                                     ;
; WIDTH_A                            ; 25                   ; Untyped                                                     ;
; WIDTHAD_A                          ; 6                    ; Untyped                                                     ;
; NUMWORDS_A                         ; 64                   ; Untyped                                                     ;
; OUTDATA_REG_A                      ; UNREGISTERED         ; Untyped                                                     ;
; ADDRESS_ACLR_A                     ; NONE                 ; Untyped                                                     ;
; OUTDATA_ACLR_A                     ; NONE                 ; Untyped                                                     ;
; WRCONTROL_ACLR_A                   ; NONE                 ; Untyped                                                     ;
; INDATA_ACLR_A                      ; NONE                 ; Untyped                                                     ;
; BYTEENA_ACLR_A                     ; NONE                 ; Untyped                                                     ;
; WIDTH_B                            ; 1                    ; Untyped                                                     ;
; WIDTHAD_B                          ; 1                    ; Untyped                                                     ;
; NUMWORDS_B                         ; 1                    ; Untyped                                                     ;
; INDATA_REG_B                       ; CLOCK1               ; Untyped                                                     ;
; WRCONTROL_WRADDRESS_REG_B          ; CLOCK1               ; Untyped                                                     ;
; RDCONTROL_REG_B                    ; CLOCK1               ; Untyped                                                     ;
; ADDRESS_REG_B                      ; CLOCK1               ; Untyped                                                     ;
; OUTDATA_REG_B                      ; UNREGISTERED         ; Untyped                                                     ;
; BYTEENA_REG_B                      ; CLOCK1               ; Untyped                                                     ;
; INDATA_ACLR_B                      ; NONE                 ; Untyped                                                     ;
; WRCONTROL_ACLR_B                   ; NONE                 ; Untyped                                                     ;
; ADDRESS_ACLR_B                     ; NONE                 ; Untyped                                                     ;
; OUTDATA_ACLR_B                     ; NONE                 ; Untyped                                                     ;
; RDCONTROL_ACLR_B                   ; NONE                 ; Untyped                                                     ;
; BYTEENA_ACLR_B                     ; NONE                 ; Untyped                                                     ;
; WIDTH_BYTEENA_A                    ; 1                    ; Untyped                                                     ;
; WIDTH_BYTEENA_B                    ; 1                    ; Untyped                                                     ;
; RAM_BLOCK_TYPE                     ; AUTO                 ; Untyped                                                     ;
; BYTE_SIZE                          ; 8                    ; Untyped                                                     ;
; READ_DURING_WRITE_MODE_MIXED_PORTS ; DONT_CARE            ; Untyped                                                     ;
; READ_DURING_WRITE_MODE_PORT_A      ; NEW_DATA_NO_NBE_READ ; Untyped                                                     ;
; READ_DURING_WRITE_MODE_PORT_B      ; NEW_DATA_NO_NBE_READ ; Untyped                                                     ;
; INIT_FILE                          ; Sound.Sound0.rtl.mif ; Untyped                                                     ;
; INIT_FILE_LAYOUT                   ; PORT_A               ; Untyped                                                     ;
; MAXIMUM_DEPTH                      ; 0                    ; Untyped                                                     ;
; CLOCK_ENABLE_INPUT_A               ; NORMAL               ; Untyped                                                     ;
; CLOCK_ENABLE_INPUT_B               ; NORMAL               ; Untyped                                                     ;
; CLOCK_ENABLE_OUTPUT_A              ; NORMAL               ; Untyped                                                     ;
; CLOCK_ENABLE_OUTPUT_B              ; NORMAL               ; Untyped                                                     ;
; CLOCK_ENABLE_CORE_A                ; USE_INPUT_CLKEN      ; Untyped                                                     ;
; CLOCK_ENABLE_CORE_B                ; USE_INPUT_CLKEN      ; Untyped                                                     ;
; ENABLE_ECC                         ; FALSE                ; Untyped                                                     ;
; ECC_PIPELINE_STAGE_ENABLED         ; FALSE                ; Untyped                                                     ;
; WIDTH_ECCSTATUS                    ; 3                    ; Untyped                                                     ;
; DEVICE_FAMILY                      ; Cyclone IV E         ; Untyped                                                     ;
; CBXI_PARAMETER                     ; altsyncram_37v       ; Untyped                                                     ;
+------------------------------------+----------------------+-------------------------------------------------------------+
Note: In order to hide this table in the UI and the text report file, please set the "Show Parameter Settings in Synthesis Report" option in "Analysis and Synthesis Settings -> More Settings" to "Off".


+-------------------------------------------------------------------------------------+
; Parameter Settings for Inferred Entity Instance: Application:instApp|lpm_mult:Mult1 ;
+------------------------------------------------+--------------+---------------------+
; Parameter Name                                 ; Value        ; Type                ;
+------------------------------------------------+--------------+---------------------+
; AUTO_CARRY_CHAINS                              ; ON           ; AUTO_CARRY          ;
; IGNORE_CARRY_BUFFERS                           ; OFF          ; IGNORE_CARRY        ;
; AUTO_CASCADE_CHAINS                            ; ON           ; AUTO_CASCADE        ;
; IGNORE_CASCADE_BUFFERS                         ; OFF          ; IGNORE_CASCADE      ;
; LPM_WIDTHA                                     ; 16           ; Untyped             ;
; LPM_WIDTHB                                     ; 16           ; Untyped             ;
; LPM_WIDTHP                                     ; 32           ; Untyped             ;
; LPM_WIDTHR                                     ; 32           ; Untyped             ;
; LPM_WIDTHS                                     ; 1            ; Untyped             ;
; LPM_REPRESENTATION                             ; SIGNED       ; Untyped             ;
; LPM_PIPELINE                                   ; 0            ; Untyped             ;
; LATENCY                                        ; 0            ; Untyped             ;
; INPUT_A_IS_CONSTANT                            ; NO           ; Untyped             ;
; INPUT_B_IS_CONSTANT                            ; NO           ; Untyped             ;
; USE_EAB                                        ; OFF          ; Untyped             ;
; MAXIMIZE_SPEED                                 ; 5            ; Untyped             ;
; DEVICE_FAMILY                                  ; Cyclone IV E ; Untyped             ;
; CARRY_CHAIN                                    ; MANUAL       ; Untyped             ;
; APEX20K_TECHNOLOGY_MAPPER                      ; LUT          ; TECH_MAPPER_APEX20K ;
; DEDICATED_MULTIPLIER_CIRCUITRY                 ; AUTO         ; Untyped             ;
; DEDICATED_MULTIPLIER_MIN_INPUT_WIDTH_FOR_AUTO  ; 0            ; Untyped             ;
; DEDICATED_MULTIPLIER_MIN_OUTPUT_WIDTH_FOR_AUTO ; 0            ; Untyped             ;
; CBXI_PARAMETER                                 ; mult_36t     ; Untyped             ;
; INPUT_A_FIXED_VALUE                            ; Bx           ; Untyped             ;
; INPUT_B_FIXED_VALUE                            ; Bx           ; Untyped             ;
; USE_AHDL_IMPLEMENTATION                        ; OFF          ; Untyped             ;
+------------------------------------------------+--------------+---------------------+
Note: In order to hide this table in the UI and the text report file, please set the "Show Parameter Settings in Synthesis Report" option in "Analysis and Synthesis Settings -> More Settings" to "Off".


+-------------------------------------------------------------------------------------+
; Parameter Settings for Inferred Entity Instance: Application:instApp|lpm_mult:Mult0 ;
+------------------------------------------------+--------------+---------------------+
; Parameter Name                                 ; Value        ; Type                ;
+------------------------------------------------+--------------+---------------------+
; AUTO_CARRY_CHAINS                              ; ON           ; AUTO_CARRY          ;
; IGNORE_CARRY_BUFFERS                           ; OFF          ; IGNORE_CARRY        ;
; AUTO_CASCADE_CHAINS                            ; ON           ; AUTO_CASCADE        ;
; IGNORE_CASCADE_BUFFERS                         ; OFF          ; IGNORE_CASCADE      ;
; LPM_WIDTHA                                     ; 16           ; Untyped             ;
; LPM_WIDTHB                                     ; 16           ; Untyped             ;
; LPM_WIDTHP                                     ; 32           ; Untyped             ;
; LPM_WIDTHR                                     ; 32           ; Untyped             ;
; LPM_WIDTHS                                     ; 1            ; Untyped             ;
; LPM_REPRESENTATION                             ; SIGNED       ; Untyped             ;
; LPM_PIPELINE                                   ; 0            ; Untyped             ;
; LATENCY                                        ; 0            ; Untyped             ;
; INPUT_A_IS_CONSTANT                            ; NO           ; Untyped             ;
; INPUT_B_IS_CONSTANT                            ; NO           ; Untyped             ;
; USE_EAB                                        ; OFF          ; Untyped             ;
; MAXIMIZE_SPEED                                 ; 5            ; Untyped             ;
; DEVICE_FAMILY                                  ; Cyclone IV E ; Untyped             ;
; CARRY_CHAIN                                    ; MANUAL       ; Untyped             ;
; APEX20K_TECHNOLOGY_MAPPER                      ; LUT          ; TECH_MAPPER_APEX20K ;
; DEDICATED_MULTIPLIER_CIRCUITRY                 ; AUTO         ; Untyped             ;
; DEDICATED_MULTIPLIER_MIN_INPUT_WIDTH_FOR_AUTO  ; 0            ; Untyped             ;
; DEDICATED_MULTIPLIER_MIN_OUTPUT_WIDTH_FOR_AUTO ; 0            ; Untyped             ;
; CBXI_PARAMETER                                 ; mult_36t     ; Untyped             ;
; INPUT_A_FIXED_VALUE                            ; Bx           ; Untyped             ;
; INPUT_B_FIXED_VALUE                            ; Bx           ; Untyped             ;
; USE_AHDL_IMPLEMENTATION                        ; OFF          ; Untyped             ;
+------------------------------------------------+--------------+---------------------+
Note: In order to hide this table in the UI and the text report file, please set the "Show Parameter Settings in Synthesis Report" option in "Analysis and Synthesis Settings -> More Settings" to "Off".


+----------------------------------------------------------------------------------------------------+
; Parameter Settings for Inferred Entity Instance: Application:instApp|PSAC:psac_inst|lpm_mult:Mult0 ;
+------------------------------------------------+--------------+------------------------------------+
; Parameter Name                                 ; Value        ; Type                               ;
+------------------------------------------------+--------------+------------------------------------+
; AUTO_CARRY_CHAINS                              ; ON           ; AUTO_CARRY                         ;
; IGNORE_CARRY_BUFFERS                           ; OFF          ; IGNORE_CARRY                       ;
; AUTO_CASCADE_CHAINS                            ; ON           ; AUTO_CASCADE                       ;
; IGNORE_CASCADE_BUFFERS                         ; OFF          ; IGNORE_CASCADE                     ;
; LPM_WIDTHA                                     ; 10           ; Untyped                            ;
; LPM_WIDTHB                                     ; 8            ; Untyped                            ;
; LPM_WIDTHP                                     ; 18           ; Untyped                            ;
; LPM_WIDTHR                                     ; 18           ; Untyped                            ;
; LPM_WIDTHS                                     ; 1            ; Untyped                            ;
; LPM_REPRESENTATION                             ; UNSIGNED     ; Untyped                            ;
; LPM_PIPELINE                                   ; 0            ; Untyped                            ;
; LATENCY                                        ; 0            ; Untyped                            ;
; INPUT_A_IS_CONSTANT                            ; NO           ; Untyped                            ;
; INPUT_B_IS_CONSTANT                            ; NO           ; Untyped                            ;
; USE_EAB                                        ; OFF          ; Untyped                            ;
; MAXIMIZE_SPEED                                 ; 5            ; Untyped                            ;
; DEVICE_FAMILY                                  ; Cyclone IV E ; Untyped                            ;
; CARRY_CHAIN                                    ; MANUAL       ; Untyped                            ;
; APEX20K_TECHNOLOGY_MAPPER                      ; LUT          ; TECH_MAPPER_APEX20K                ;
; DEDICATED_MULTIPLIER_CIRCUITRY                 ; AUTO         ; Untyped                            ;
; DEDICATED_MULTIPLIER_MIN_INPUT_WIDTH_FOR_AUTO  ; 0            ; Untyped                            ;
; DEDICATED_MULTIPLIER_MIN_OUTPUT_WIDTH_FOR_AUTO ; 0            ; Untyped                            ;
; CBXI_PARAMETER                                 ; mult_lbt     ; Untyped                            ;
; INPUT_A_FIXED_VALUE                            ; Bx           ; Untyped                            ;
; INPUT_B_FIXED_VALUE                            ; Bx           ; Untyped                            ;
; USE_AHDL_IMPLEMENTATION                        ; OFF          ; Untyped                            ;
+------------------------------------------------+--------------+------------------------------------+
Note: In order to hide this table in the UI and the text report file, please set the "Show Parameter Settings in Synthesis Report" option in "Analysis and Synthesis Settings -> More Settings" to "Off".


+--------------------------------------------------------------------------------------------------------------------+
; altsyncram Parameter Settings by Entity Instance                                                                   ;
+-------------------------------------------+------------------------------------------------------------------------+
; Name                                      ; Value                                                                  ;
+-------------------------------------------+------------------------------------------------------------------------+
; Number of entity instances                ; 1                                                                      ;
; Entity Instance                           ; Application:instApp|PSAC:psac_inst|POLY_ROM:rom|altsyncram:Mux24_rtl_0 ;
;     -- OPERATION_MODE                     ; ROM                                                                    ;
;     -- WIDTH_A                            ; 25                                                                     ;
;     -- NUMWORDS_A                         ; 64                                                                     ;
;     -- OUTDATA_REG_A                      ; UNREGISTERED                                                           ;
;     -- WIDTH_B                            ; 1                                                                      ;
;     -- NUMWORDS_B                         ; 1                                                                      ;
;     -- ADDRESS_REG_B                      ; CLOCK1                                                                 ;
;     -- OUTDATA_REG_B                      ; UNREGISTERED                                                           ;
;     -- RAM_BLOCK_TYPE                     ; AUTO                                                                   ;
;     -- READ_DURING_WRITE_MODE_MIXED_PORTS ; DONT_CARE                                                              ;
+-------------------------------------------+------------------------------------------------------------------------+


+-------------------------------------------------------------------------------------------+
; lpm_mult Parameter Settings by Entity Instance                                            ;
+---------------------------------------+---------------------------------------------------+
; Name                                  ; Value                                             ;
+---------------------------------------+---------------------------------------------------+
; Number of entity instances            ; 3                                                 ;
; Entity Instance                       ; Application:instApp|lpm_mult:Mult1                ;
;     -- LPM_WIDTHA                     ; 16                                                ;
;     -- LPM_WIDTHB                     ; 16                                                ;
;     -- LPM_WIDTHP                     ; 32                                                ;
;     -- LPM_REPRESENTATION             ; SIGNED                                            ;
;     -- INPUT_A_IS_CONSTANT            ; NO                                                ;
;     -- INPUT_B_IS_CONSTANT            ; NO                                                ;
;     -- USE_EAB                        ; OFF                                               ;
;     -- DEDICATED_MULTIPLIER_CIRCUITRY ; AUTO                                              ;
;     -- INPUT_A_FIXED_VALUE            ; Bx                                                ;
;     -- INPUT_B_FIXED_VALUE            ; Bx                                                ;
; Entity Instance                       ; Application:instApp|lpm_mult:Mult0                ;
;     -- LPM_WIDTHA                     ; 16                                                ;
;     -- LPM_WIDTHB                     ; 16                                                ;
;     -- LPM_WIDTHP                     ; 32                                                ;
;     -- LPM_REPRESENTATION             ; SIGNED                                            ;
;     -- INPUT_A_IS_CONSTANT            ; NO                                                ;
;     -- INPUT_B_IS_CONSTANT            ; NO                                                ;
;     -- USE_EAB                        ; OFF                                               ;
;     -- DEDICATED_MULTIPLIER_CIRCUITRY ; AUTO                                              ;
;     -- INPUT_A_FIXED_VALUE            ; Bx                                                ;
;     -- INPUT_B_FIXED_VALUE            ; Bx                                                ;
; Entity Instance                       ; Application:instApp|PSAC:psac_inst|lpm_mult:Mult0 ;
;     -- LPM_WIDTHA                     ; 10                                                ;
;     -- LPM_WIDTHB                     ; 8                                                 ;
;     -- LPM_WIDTHP                     ; 18                                                ;
;     -- LPM_REPRESENTATION             ; UNSIGNED                                          ;
;     -- INPUT_A_IS_CONSTANT            ; NO                                                ;
;     -- INPUT_B_IS_CONSTANT            ; NO                                                ;
;     -- USE_EAB                        ; OFF                                               ;
;     -- DEDICATED_MULTIPLIER_CIRCUITRY ; AUTO                                              ;
;     -- INPUT_A_FIXED_VALUE            ; Bx                                                ;
;     -- INPUT_B_FIXED_VALUE            ; Bx                                                ;
+---------------------------------------+---------------------------------------------------+


+-------------------------------------------------------------------------------------------------------------------+
; Port Connectivity Checks: "Application:instApp|PSAC:psac_inst"                                                    ;
+---------+--------+----------+-------------------------------------------------------------------------------------+
; Port    ; Type   ; Severity ; Details                                                                             ;
+---------+--------+----------+-------------------------------------------------------------------------------------+
; a[3..0] ; Output ; Info     ; Connected to dangling logic. Logic that only feeds a dangling port will be removed. ;
+---------+--------+----------+-------------------------------------------------------------------------------------+


+-------------------------------+
; Elapsed Time Per Partition    ;
+----------------+--------------+
; Partition Name ; Elapsed Time ;
+----------------+--------------+
; Top            ; 00:00:04     ;
+----------------+--------------+


+-------------------------------+
; Analysis & Synthesis Messages ;
+-------------------------------+
Info: *******************************************************************
Info: Running Quartus II 64-Bit Analysis & Synthesis
    Info: Version 12.1 Build 243 01/31/2013 Service Pack 1.33 SJ Full Version
    Info: Processing started: Thu Oct 12 10:02:53 2017
Info: Command: quartus_map --read_settings_files=on --write_settings_files=off Sound -c Sound
Info (20030): Parallel compilation is enabled and will use 4 of the 4 processors detected
Info (12021): Found 2 design units, including 1 entities, in source file group_no.vhd
    Info (12022): Found design unit 1: group_no-RTL
    Info (12023): Found entity 1: group_no
Info (12021): Found 1 design units, including 1 entities, in source file sound.bdf
    Info (12023): Found entity 1: Sound
Info (12021): Found 6 design units, including 3 entities, in source file application.vhd
    Info (12022): Found design unit 1: Application-rtl
    Info (12022): Found design unit 2: PSAC-rtl
    Info (12022): Found design unit 3: POLY_ROM-rtl
    Info (12023): Found entity 1: Application
    Info (12023): Found entity 2: PSAC
    Info (12023): Found entity 3: POLY_ROM
Info (12021): Found 1 design units, including 1 entities, in source file snddriver.bdf
    Info (12023): Found entity 1: SndDriver
Info (12021): Found 2 design units, including 1 entities, in source file ctrl_block.vhd
    Info (12022): Found design unit 1: Ctrl-ctrlarch
    Info (12023): Found entity 1: Ctrl
Info (12021): Found 2 design units, including 1 entities, in source file channel_mod.vhd
    Info (12022): Found design unit 1: Channel_mod-channelarch
    Info (12023): Found entity 1: Channel_mod
Info (12021): Found 2 design units, including 1 entities, in source file adcdatcode.vhd
    Info (12022): Found design unit 1: adcdatcode-arc
    Info (12023): Found entity 1: adcdatcode
Info (12021): Found 2 design units, including 1 entities, in source file ram_control.vhd
    Info (12022): Found design unit 1: RAM_control-rtl
    Info (12023): Found entity 1: RAM_control
Info (12127): Elaborating entity "Sound" for the top level hierarchy
Info (12128): Elaborating entity "SndDriver" for hierarchy "SndDriver:instSndDrv"
Info (12128): Elaborating entity "Ctrl" for hierarchy "SndDriver:instSndDrv|Ctrl:inst_ctrl"
Info (12128): Elaborating entity "Channel_mod" for hierarchy "SndDriver:instSndDrv|Channel_mod:inst_right"
Info (12128): Elaborating entity "adcdatcode" for hierarchy "adcdatcode:inst1"
Info (12128): Elaborating entity "Application" for hierarchy "Application:instApp"
Info (12128): Elaborating entity "PSAC" for hierarchy "Application:instApp|PSAC:psac_inst"
Info (12128): Elaborating entity "POLY_ROM" for hierarchy "Application:instApp|PSAC:psac_inst|POLY_ROM:rom"
Info (12128): Elaborating entity "RAM_control" for hierarchy "RAM_control:inst2"
Info (12128): Elaborating entity "group_no" for hierarchy "group_no:inst"
Info (19000): Inferred 1 megafunctions from design logic
    Info (276031): Inferred altsyncram megafunction from the following design logic: "Application:instApp|PSAC:psac_inst|POLY_ROM:rom|Mux24_rtl_0"
        Info (286033): Parameter OPERATION_MODE set to ROM
        Info (286033): Parameter WIDTH_A set to 25
        Info (286033): Parameter WIDTHAD_A set to 6
        Info (286033): Parameter NUMWORDS_A set to 64
        Info (286033): Parameter OUTDATA_REG_A set to UNREGISTERED
        Info (286033): Parameter RAM_BLOCK_TYPE set to AUTO
        Info (286033): Parameter INIT_FILE set to Sound.Sound0.rtl.mif
Info (278001): Inferred 3 megafunctions from design logic
    Info (278003): Inferred multiplier megafunction ("lpm_mult") from the following logic: "Application:instApp|Mult1"
    Info (278003): Inferred multiplier megafunction ("lpm_mult") from the following logic: "Application:instApp|Mult0"
    Info (278003): Inferred multiplier megafunction ("lpm_mult") from the following logic: "Application:instApp|PSAC:psac_inst|Mult0"
Info (12130): Elaborated megafunction instantiation "Application:instApp|PSAC:psac_inst|POLY_ROM:rom|altsyncram:Mux24_rtl_0"
Info (12133): Instantiated megafunction "Application:instApp|PSAC:psac_inst|POLY_ROM:rom|altsyncram:Mux24_rtl_0" with the following parameter:
    Info (12134): Parameter "OPERATION_MODE" = "ROM"
    Info (12134): Parameter "WIDTH_A" = "25"
    Info (12134): Parameter "WIDTHAD_A" = "6"
    Info (12134): Parameter "NUMWORDS_A" = "64"
    Info (12134): Parameter "OUTDATA_REG_A" = "UNREGISTERED"
    Info (12134): Parameter "RAM_BLOCK_TYPE" = "AUTO"
    Info (12134): Parameter "INIT_FILE" = "Sound.Sound0.rtl.mif"
Info (12021): Found 1 design units, including 1 entities, in source file db/altsyncram_37v.tdf
    Info (12023): Found entity 1: altsyncram_37v
Info (12130): Elaborated megafunction instantiation "Application:instApp|lpm_mult:Mult1"
Info (12133): Instantiated megafunction "Application:instApp|lpm_mult:Mult1" with the following parameter:
    Info (12134): Parameter "LPM_WIDTHA" = "16"
    Info (12134): Parameter "LPM_WIDTHB" = "16"
    Info (12134): Parameter "LPM_WIDTHP" = "32"
    Info (12134): Parameter "LPM_WIDTHR" = "32"
    Info (12134): Parameter "LPM_WIDTHS" = "1"
    Info (12134): Parameter "LPM_REPRESENTATION" = "SIGNED"
    Info (12134): Parameter "INPUT_A_IS_CONSTANT" = "NO"
    Info (12134): Parameter "INPUT_B_IS_CONSTANT" = "NO"
    Info (12134): Parameter "MAXIMIZE_SPEED" = "5"
Info (12021): Found 1 design units, including 1 entities, in source file db/mult_36t.tdf
    Info (12023): Found entity 1: mult_36t
Info (12130): Elaborated megafunction instantiation "Application:instApp|PSAC:psac_inst|lpm_mult:Mult0"
Info (12133): Instantiated megafunction "Application:instApp|PSAC:psac_inst|lpm_mult:Mult0" with the following parameter:
    Info (12134): Parameter "LPM_WIDTHA" = "10"
    Info (12134): Parameter "LPM_WIDTHB" = "8"
    Info (12134): Parameter "LPM_WIDTHP" = "18"
    Info (12134): Parameter "LPM_WIDTHR" = "18"
    Info (12134): Parameter "LPM_WIDTHS" = "1"
    Info (12134): Parameter "LPM_REPRESENTATION" = "UNSIGNED"
    Info (12134): Parameter "INPUT_A_IS_CONSTANT" = "NO"
    Info (12134): Parameter "INPUT_B_IS_CONSTANT" = "NO"
    Info (12134): Parameter "MAXIMIZE_SPEED" = "5"
Info (12021): Found 1 design units, including 1 entities, in source file db/mult_lbt.tdf
    Info (12023): Found entity 1: mult_lbt
Info (13000): Registers with preset signals will power-up high
Info (13003): DEV_CLRn pin will set, and not reset, register with preset signal due to NOT Gate Push-Back
Warning (13024): Output pins are stuck at VCC or GND
    Warning (13410): Pin "sram_ce" is stuck at GND
    Warning (13410): Pin "sram_oe" is stuck at GND
    Warning (13410): Pin "sram_we" is stuck at VCC
    Warning (13410): Pin "sram_lb" is stuck at GND
    Warning (13410): Pin "sram_ub" is stuck at GND
    Warning (13410): Pin "HEX6[0]" is stuck at GND
    Warning (13410): Pin "HEX6[1]" is stuck at VCC
    Warning (13410): Pin "HEX6[2]" is stuck at GND
    Warning (13410): Pin "HEX6[3]" is stuck at GND
    Warning (13410): Pin "HEX6[4]" is stuck at VCC
    Warning (13410): Pin "HEX6[5]" is stuck at GND
    Warning (13410): Pin "HEX6[6]" is stuck at GND
    Warning (13410): Pin "HEX7[0]" is stuck at GND
    Warning (13410): Pin "HEX7[1]" is stuck at VCC
    Warning (13410): Pin "HEX7[2]" is stuck at GND
    Warning (13410): Pin "HEX7[3]" is stuck at GND
    Warning (13410): Pin "HEX7[4]" is stuck at VCC
    Warning (13410): Pin "HEX7[5]" is stuck at GND
    Warning (13410): Pin "HEX7[6]" is stuck at GND
Info (16010): Generating hard_block partition "hard_block:auto_generated_inst"
    Info (16011): Adding 0 node(s), including 0 DDIO, 0 PLL, 0 transceiver and 0 LCELL
Info (21057): Implemented 778 device resources after synthesis - the final resource count might be different
    Info (21058): Implemented 21 input pins
    Info (21059): Implemented 62 output pins
    Info (21061): Implemented 664 logic cells
    Info (21064): Implemented 25 RAM segments
    Info (21062): Implemented 6 DSP elements
Info: Quartus II 64-Bit Analysis & Synthesis was successful. 0 errors, 20 warnings
    Info: Peak virtual memory: 521 megabytes
    Info: Processing ended: Thu Oct 12 10:03:08 2017
    Info: Elapsed time: 00:00:15
    Info: Total CPU time (on all processors): 00:00:05


